{
  "presets": [
    [
      "@babel/preset-env",
      {
        "targets": {
          "safari": "15",
          "node": "current"
        },
        "useBuiltIns": "usage",
        "corejs": "3.6.5"
      }
    ]
  ]
}